@startuml

title Library Management System

class Book {
    - globalId: int {static}
    - title: String
    - author: String
    - isbn: String
    - isAvailable: Boolean
    + borrow(): Boolean
    + returnBook(): void
}

class Member {
    - memberId: String
    - name: String
    - borrowedBooks: List<Book>
    + borrowBook(book: Book): Boolean
    + returnBook(book: Book): void
}

class Librarian {
    - employeeId: String
    - name: String
    + addBook(book: Book): void
    + removeBook(book: Book): void
}

class Library {
    - books: List<Book>
    - members: List<Member>
    + addMember(member: Member): void
    + removeMember(member: Member): void
    + findBook(title: String): Book
}

Library "1" -- "*" Book : contains
Library "1" -- "*" Member : registers
Library "1" -- "*" Librarian : employs
Member "1" -- "*" Book : borrows

@enduml
